\BOOKMARK [0][-]{chapter.1}{\376\377\000C\000o\000n\000t\000e\000n\000t\000s}{}% 1
\BOOKMARK [1][-]{section.1.1}{\376\377\000U\000s\000a\000g\000e}{chapter.1}% 2
\BOOKMARK [2][-]{subsection.1.1.1}{\376\377\000I\000n\000s\000t\000a\000l\000l\000a\000t\000i\000o\000n}{section.1.1}% 3
\BOOKMARK [2][-]{subsection.1.1.2}{\376\377\000A\000p\000p\000e\000l\000e\000r\000\040\000l\000e\000\040\000f\000i\000c\000h\000i\000e\000r\000\040\000d\000a\000n\000s\000\040\000u\000n\000\040\000a\000u\000t\000r\000e\000\040\000d\000o\000s\000s\000i\000e\000r}{section.1.1}% 4
\BOOKMARK [2][-]{subsection.1.1.3}{\376\377\000L\000e\000s\000\040\000d\000i\000f\000f\000\351\000r\000e\000n\000t\000e\000s\000\040\000f\000o\000n\000c\000t\000i\000o\000n\000s\000\040\000p\000r\000\351\000s\000e\000n\000t\000e\000s}{section.1.1}% 5
\BOOKMARK [3][-]{subsubsection*.4}{\376\377\000P\000a\000r\000a\000m\000\350\000t\000r\000e\000s}{subsection.1.1.3}% 6
\BOOKMARK [3][-]{subsubsection*.5}{\376\377\000R\000e\000t\000o\000u\000r\000n\000e}{subsection.1.1.3}% 7
\BOOKMARK [3][-]{subsubsection*.7}{\376\377\000R\000e\000t\000o\000u\000r\000n\000e}{subsection.1.1.3}% 8
\BOOKMARK [3][-]{subsubsection*.9}{\376\377\000P\000a\000r\000a\000m\000\350\000t\000r\000e\000s}{subsection.1.1.3}% 9
\BOOKMARK [3][-]{subsubsection*.10}{\376\377\000R\000e\000t\000o\000u\000r\000n\000e}{subsection.1.1.3}% 10
\BOOKMARK [3][-]{subsubsection*.12}{\376\377\000R\000e\000t\000o\000u\000r\000n\000e}{subsection.1.1.3}% 11
\BOOKMARK [3][-]{subsubsection*.14}{\376\377\000R\000e\000t\000o\000u\000r\000n\000e}{subsection.1.1.3}% 12
\BOOKMARK [3][-]{subsubsection*.15}{\376\377\000E\000x\000e\000m\000p\000l\000e}{subsection.1.1.3}% 13
\BOOKMARK [3][-]{subsubsection*.17}{\376\377\000R\000e\000t\000o\000u\000r\000n\000e}{subsection.1.1.3}% 14
\BOOKMARK [0][-]{section*.18}{\376\377\000I\000n\000d\000e\000x\000\040\000d\000e\000s\000\040\000m\000o\000d\000u\000l\000e\000s\000\040\000P\000y\000t\000h\000o\000n}{}% 15
\BOOKMARK [0][-]{section*.19}{\376\377\000I\000n\000d\000e\000x}{}% 16
