\babel@toc {french}{}\relax 
\contentsline {chapter}{\numberline {1}Contents}{3}{chapter.1}%
\contentsline {section}{\numberline {1.1}Usage}{3}{section.1.1}%
\contentsline {subsection}{\numberline {1.1.1}Installation}{3}{subsection.1.1.1}%
\contentsline {subsection}{\numberline {1.1.2}Appeler le fichier dans un autre dossier}{3}{subsection.1.1.2}%
\contentsline {subsection}{\numberline {1.1.3}Les différentes fonctions présentes}{4}{subsection.1.1.3}%
\contentsline {subsubsection}{Paramètres}{4}{subsubsection*.4}%
\contentsline {subsubsection}{Retourne}{4}{subsubsection*.5}%
\contentsline {subsubsection}{Retourne}{4}{subsubsection*.7}%
\contentsline {subsubsection}{Paramètres}{4}{subsubsection*.9}%
\contentsline {subsubsection}{Retourne}{4}{subsubsection*.10}%
\contentsline {subsubsection}{Retourne}{4}{subsubsection*.12}%
\contentsline {subsubsection}{Retourne}{5}{subsubsection*.14}%
\contentsline {subsubsection}{Exemple}{5}{subsubsection*.15}%
\contentsline {subsubsection}{Retourne}{5}{subsubsection*.17}%
\contentsline {chapter}{Index des modules Python}{7}{section*.18}%
\contentsline {chapter}{Index}{9}{section*.19}%
