\relax 
\providecommand\babel@aux[2]{}
\@nameuse{bbl@beforestart}
\catcode `:\active 
\catcode `;\active 
\catcode `!\active 
\catcode `?\active 
\providecommand\hyper@newdestlabel[2]{}
\providecommand\HyperFirstAtBeginDocument{\AtBeginDocument}
\HyperFirstAtBeginDocument{\ifx\hyper@anchor\@undefined
\global\let\oldnewlabel\newlabel
\gdef\newlabel#1#2{\newlabelxx{#1}#2}
\gdef\newlabelxx#1#2#3#4#5#6{\oldnewlabel{#1}{{#2}{#3}}}
\AtEndDocument{\ifx\hyper@anchor\@undefined
\let\newlabel\oldnewlabel
\fi}
\fi}
\global\let\hyper@last\relax 
\gdef\HyperFirstAtBeginDocument#1{#1}
\providecommand\HyField@AuxAddToFields[1]{}
\providecommand\HyField@AuxAddToCoFields[2]{}
\babel@aux{french}{}
\newlabel{index::doc}{{}{1}{}{section*.2}{}}
\@writefile{toc}{\contentsline {chapter}{\numberline {1}Contents}{3}{chapter.1}\protected@file@percent }
\@writefile{lof}{\addvspace {10\p@ }}
\@writefile{lot}{\addvspace {10\p@ }}
\newlabel{index:contents}{{1}{3}{Contents}{chapter.1}{}}
\@writefile{toc}{\contentsline {section}{\numberline {1.1}Usage}{3}{section.1.1}\protected@file@percent }
\newlabel{usage:usage}{{1.1}{3}{Usage}{section.1.1}{}}
\newlabel{usage::doc}{{1.1}{3}{Usage}{section.1.1}{}}
\@writefile{toc}{\contentsline {subsection}{\numberline {1.1.1}Installation}{3}{subsection.1.1.1}\protected@file@percent }
\newlabel{usage:installation}{{1.1.1}{3}{Installation}{subsection.1.1.1}{}}
\newlabel{usage:id1}{{1.1.1}{3}{Installation}{subsection.1.1.1}{}}
\@writefile{toc}{\contentsline {subsection}{\numberline {1.1.2}Appeler le fichier dans un autre dossier}{3}{subsection.1.1.2}\protected@file@percent }
\newlabel{usage:appeler-le-fichier-dans-un-autre-dossier}{{1.1.2}{3}{Appeler le fichier dans un autre dossier}{subsection.1.1.2}{}}
\@writefile{toc}{\contentsline {subsection}{\numberline {1.1.3}Les différentes fonctions présentes}{4}{subsection.1.1.3}\protected@file@percent }
\newlabel{usage:module-boucle_automatisation}{{1.1.3}{4}{Les différentes fonctions présentes}{subsection.1.1.3}{}}
\newlabel{usage:les-differentes-fonctions-presentes}{{1.1.3}{4}{Les différentes fonctions présentes}{subsection.1.1.3}{}}
\newlabel{usage:boucle_automatisation.ajout_auto}{{1.1.3}{4}{Les différentes fonctions présentes}{section*.3}{}}
\@writefile{toc}{\contentsline {subsubsection}{Paramètres}{4}{subsubsection*.4}\protected@file@percent }
\newlabel{usage:parametres}{{1.1.3}{4}{Paramètres}{subsubsection*.4}{}}
\@writefile{toc}{\contentsline {subsubsection}{Retourne}{4}{subsubsection*.5}\protected@file@percent }
\newlabel{usage:retourne}{{1.1.3}{4}{Retourne}{subsubsection*.5}{}}
\newlabel{usage:boucle_automatisation.name}{{1.1.3}{4}{Les différentes fonctions présentes}{section*.6}{}}
\@writefile{toc}{\contentsline {subsubsection}{Retourne}{4}{subsubsection*.7}\protected@file@percent }
\newlabel{usage:id2}{{1.1.3}{4}{Retourne}{subsubsection*.7}{}}
\newlabel{usage:boucle_automatisation.position}{{1.1.3}{4}{Les différentes fonctions présentes}{section*.8}{}}
\@writefile{toc}{\contentsline {subsubsection}{Paramètres}{4}{subsubsection*.9}\protected@file@percent }
\newlabel{usage:id3}{{1.1.3}{4}{Paramètres}{subsubsection*.9}{}}
\@writefile{toc}{\contentsline {subsubsection}{Retourne}{4}{subsubsection*.10}\protected@file@percent }
\newlabel{usage:id4}{{1.1.3}{4}{Retourne}{subsubsection*.10}{}}
\newlabel{usage:boucle_automatisation.prescripteur}{{1.1.3}{4}{Les différentes fonctions présentes}{section*.11}{}}
\@writefile{toc}{\contentsline {subsubsection}{Retourne}{4}{subsubsection*.12}\protected@file@percent }
\newlabel{usage:id5}{{1.1.3}{4}{Retourne}{subsubsection*.12}{}}
\newlabel{usage:boucle_automatisation.surname}{{1.1.3}{4}{Les différentes fonctions présentes}{section*.13}{}}
\@writefile{toc}{\contentsline {subsubsection}{Retourne}{5}{subsubsection*.14}\protected@file@percent }
\newlabel{usage:id6}{{1.1.3}{5}{Retourne}{subsubsection*.14}{}}
\@writefile{toc}{\contentsline {subsubsection}{Exemple}{5}{subsubsection*.15}\protected@file@percent }
\newlabel{usage:exemple}{{1.1.3}{5}{Exemple}{subsubsection*.15}{}}
\newlabel{usage:boucle_automatisation.time}{{1.1.3}{5}{Les différentes fonctions présentes}{section*.16}{}}
\@writefile{toc}{\contentsline {subsubsection}{Retourne}{5}{subsubsection*.17}\protected@file@percent }
\newlabel{usage:id7}{{1.1.3}{5}{Retourne}{subsubsection*.17}{}}
\@writefile{toc}{\contentsline {chapter}{Index des modules Python}{7}{section*.18}\protected@file@percent }
\@writefile{toc}{\contentsline {chapter}{Index}{9}{section*.19}\protected@file@percent }
\gdef \@abspage@last{13}
